ID;Nama;Nama_matkul_A;Kelompok_matkul_A;Total_responden_A;K1A;K2A;K3A;K4A;K5A;K6A;K7A;K8A;K9A;K10A;Total_KA;Rata_rata_KA;Kuisioner_Kelas_A;Nama_matkul_B;Kelompok_matkul_B;Total_responden_B;K1B;K2B;K3B;K4B;K5B;K6B;K7B;K8B;K9B;K10B;Kuisioner_Kelas_B;Total_KB;Rata_rata_KB;Total_KA_KB
1; Abas Setiawan, S.Kom, M.Cs;GAME PROGRAMMING;A11.4706;25;83;82;85;92;82;86;82;83;85;83;843;84.3;3.37;PEMODELAN DAN SIMULASI;A11.4705;25;91;90;88;92;89;88;88;88;94;90;3.59;898;89.8;174.1
2; ABDUL HOYYI, S.Si, M.Si;MANAJEMEN SAINS;A12.6502;25;86;85;84;91;87;87;80;78;84;82;844;84.4;3.38;MANAJEMEN SAINS;A12.6503;17;58;54;51;57;57;55;51;50;54;57;3.2;544;54.4;138.8
3; ABDUL WAHAB, MPdI.;PENDIDIKAN AGAMA;A14.7102;24;77;75;80;88;74;84;69;73;78;71;769;76.9;3.2;PENDIDIKAN AGAMA;A14.7105;25;77;84;84;94;78;80;74;77;80;79;3.23;807;80.7;157.6
4; Abdussalam, M.Kom;ORGANISASI DAN ARSITEKTUR KOMPUTER;A11.4317;14;49;49;50;54;48;46;48;50;51;50;495;49.5;3.54;ORGANISASI DAN ARSITEKTUR KOMPUTER;A11.4301;22;79;83;84;86;77;73;83;83;75;78;3.64;801;80.1;129.6
5; Abi Senoprabowo, M.Ds;DESAIN ORNAMEN;A14.7702;12;42;42;40;43;42;40;37;39;40;42;407;40.7;3.39;DESAIN ORNAMEN;A14.7701;20;65;65;66;68;67;65;64;65;67;63;3.28;655;65.5;106.2
6; Abu Salam, M.Kom;PEMROGRAMAN BERBASIS WEB;A11.4316;21;77;75;70;77;76;72;69;71;77;78;742;74.2;3.53;PEMROGRAMAN BERBASIS WEB;A11.4303;21;70;73;70;78;72;67;66;69;68;71;3.35;704;70.4;144.6
7; Achmad Wahid Kurniawan, S.Si, M.Kom;PROBABILITAS & STATISTIK;A11.4306;21;64;69;59;73;65;55;53;62;60;60;620;62;2.95;PROBABILITAS & STATISTIK;A11.4304;25;80;76;80;86;77;65;70;73;75;80;3.05;762;76.2;138.2
8; Acun Kardianawati, M.Kom;ANALISA PROSES BISNIS;A12.6304;25;89;90;89;91;92;88;90;90;93;91;903;90.3;3.61;SISTEM INFORMASI;A12.6104;25;78;80;76;87;77;62;71;72;75;75;3.01;753;75.3;165.6
9; Adhi Susilo, Ph.D;KALKULUS 1;A11.4110;25;65;61;54;74;71;93;46;65;82;63;674;67.4;2.7;KALKULUS 1;A11.4115;25;73;68;58;83;79;91;48;66;75;61;2.81;702;70.2;137.6
10; Adhitya Candra Irawan, S.Sn;FOTOGRAFI 1;A14.7302;16;51;53;51;59;54;54;54;49;49;52;526;52.6;3.29;FOTOGRAFI 1;A14.7303;19;68;65;66;66;67;65;64;67;67;70;3.5;665;66.5;119.1
11; Adhitya Nugraha, S.Kom, M.CS;JARINGAN KOMPUTER;A11.4516;20;71;67;66;75;70;66;67;67;67;69;685;68.5;3.43;NETWORK MANAGEMENT;A11.4707;25;86;87;82;93;84;83;79;80;85;83;3.37;842;84.2;152.7
12; Adi Prihandono, M.Kom;PENGANTAR TEKNOLOGI INFORMASI;A11.4109;24;86;88;88;96;82;77;83;86;78;83;847;84.7;3.53;PENGANTAR TEKNOLOGI INFORMASI;A11.4115;23;75;80;77;91;72;64;77;77;72;72;3.29;757;75.7;160.4
13; ADJI NUGROHO, M.Sn;KOLOKIUM;A14.7704;12;45;43;44;46;44;41;41;44;42;44;434;43.4;3.62;PENGANTAR DESAIN KOMUNIKASI VISUAL;A14.7105;24;73;82;80;81;78;71;71;75;78;76;3.19;765;76.5;119.9
14; Affandy, M.Kom, Ph.D.;MANAJEMEN PROYEK;A12.6704;20;76;79;80;78;74;74;71;79;74;77;762;76.2;3.81;BAHASA INDONESIA;A12.6801;23;84;84;85;90;84;86;88;88;85;88;3.75;862;86.2;162.4
15; AGUS MARGIANTONO, S.Si, MT;FISIKA 1;A11.4101;22;70;68;67;74;73;69;65;67;72;72;697;69.7;3.17;FISIKA 1;A11.4106;25;86;92;90;97;87;77;78;85;78;85;3.42;855;85.5;155.2
16; AGUS SETIAWAN, M. Sn;ETIKA PROFESI;A14.7701;18;57;57;59;66;57;55;47;53;55;58;564;56.4;3.13;PSIKOLOGI PERSEPSI;A14.7301;25;82;81;79;83;81;74;71;82;77;78;3.15;788;78.8;135.2
17; Agus Triyono, S.Sos,MSi;PRODUKSI BERITA;A24.8301;24;95;77;78;87;78;73;76;74;76;75;789;78.9;3.29;CREATIVE AND INNOVATIVE THINKING;A24.8101;22;70;68;67;74;73;69;65;67;72;72;3.17;697;69.7;148.6
18; Agus Winarno, M.Kom;ANALISA DAN PERANCANGAN SISTEM INFORMASI 2;A12.6504;24;84;86;82;84;81;83;76;75;81;81;813;81.3;3.39;SISTEM BASIS DATA;A12.6506;12;38;38;35;40;40;36;35;37;38;37;3.12;374;37.4;118.7
19; AHMAD AKROM, S.Sn, M.Kom;DESAIN KOMUNIKASI VISUAL 1;A14.7305;25;86;84;84;94;84;84;83;86;82;82;849;84.9;3.4;TEORI PERIKLANAN;A14.7503;25;89;87;84;94;89;90;79;86;86;86;3.48;870;87;171.9
20; Ahmad Zainul Fanani, SSi, M.Kom;MATRIKS & RUANG VEKTOR;A11.4307;14;46;48;47;50;46;44;42;42;45;47;457;45.7;3.26;MATRIKS & RUANG VEKTOR;A11.4309;20;66;63;65;75;71;67;64;65;64;65;3.33;665;66.5;112.2
21; Aisyatul Karima, S.Kom, MCS;NETWORK MANAGEMENT;A11.4704;16;48;51;53;56;49;55;44;45;47;50;498;49.8;3.11;JARINGAN KOMPUTER;A11.4505;25;87;88;88;92;90;93;87;88;90;91;3.58;894;89.4;139.2
22; Ajib Susanto, M.Kom;PEMROGRAMAN MOBILE;A11.4518;21;76;77;78;84;79;77;77;77;76;78;779;77.9;3.71;PEMROGRAMAN BERBASIS WEB;A11.4301;25;89;81;74;88;82;82;72;83;84;83;3.27;818;81.8;159.7
23; ALI MUQODDAS, S.Sn, M.Kom;KOMPUTER GRAFIS 2;A14.7304;23;76;80;77;86;76;69;74;75;72;74;759;75.9;3.3;TEKNIK PRESENTASI;A14.7303;25;84;83;84;96;82;71;84;82;79;81;3.3;826;82.6;158.5
24; AMANU ROMLI, S.Sos, M.Si;MANAJEMEN PENYIARAN;A24.8101;11;38;39;37;40;37;38;35;35;38;38;375;37.5;3.41;ETIKA & HUKUM PENYIARAN;A24.8101;21;70;77;69;81;72;78;56;67;75;68;3.4;713;71.3;108.8
25; AMIDA YUSRIANA, M.I.Kom;;;;;;;;;;;;;;0;0;;;;;;;;;;;;;;;;0;0;0
26; Amiq Fahmi, S. Kom., M.Kom.;PERENCANAAN DAN PENGEMBANGAN SI;A12.6706;22;81;83;83;84;81;78;81;83;81;83;818;81.8;3.72;ALGORITMA DAN PEMROGRAMAN 2;A12.6307;18;69;68;69;72;68;71;64;68;68;68;3.81;685;68.5;150.3
27; Andik Setyono, Ph.D;JARINGAN KOMPUTER;A11.4502;25;91;93;83;95;88;93;77;85;89;88;882;88.2;3.53;NETWORK MANAGEMENT;A11.4702;24;77;77;75;85;77;76;76;81;76;80;3.25;780;78;166.2
28; Anisa Larassati, S.S, M.Ling;BAHASA INGGRIS;A11.4117;25;83;85;86;93;80;73;73;76;77;78;804;80.4;3.22;BAHASA INGGRIS;A11.4110;24;80;83;81;90;84;89;80;85;83;83;3.49;838;83.8;164.2
29; Annas Marzuki Sulaiman, M.Sn;METODE PRODUKSI GRAFIKA 2;A14.7503;25;77;82;81;91;80;65;75;77;75;76;779;77.9;3.12;PENGANTAR DESAIN KOMUNIKASI VISUAL;A14.7104;25;83;85;82;91;82;64;73;76;79;78;3.17;793;79.3;157.2
30; Ardytha Luthfiarta, M.Kom;DASAR PEMROGRAMAN;A11.4109;25;91;92;92;93;92;83;91;95;86;90;905;90.5;3.62;INFORMATION RETRIEVAL;A11.4702;14;48;52;49;53;50;42;47;48;48;49;3.47;486;48.6;139.1
31; Arie Surastio, M.Sn;TEKNIK FILM NARATIF;A16.A301;24;69;69;58;77;72;73;51;55;67;65;656;65.6;2.73;ANALISA FILM II;A16.A301;25;79;79;69;83;80;77;64;66;76;79;3.01;752;75.2;140.8
32; Aris Marjuni, S.Si, M.Kom;MATEMATIKA DISKRIT;A11.4302;24;84;88;85;88;87;88;83;82;85;86;856;85.6;3.57;MATEMATIKA DISKRIT;A11.4312;24;77;80;81;85;80;76;73;75;78;78;3.26;783;78.3;163.9
33; Aris Nurhindarto, M.Kom;PENGELOLAAN HUBUNGAN PELANGGAN;A12.6504;25;85;87;87;90;88;86;88;86;85;88;870;87;3.48;SISTEM BASIS DATA;A12.6504;18;65;68;66;67;67;64;63;69;67;64;3.67;660;66;153
34; Asih Rohmani, M.Kom;PROTEKSI ASET INFORMASI;A12.6704;24;84;84;83;85;83;77;75;80;79;78;808;80.8;3.37;MANAJEMEN RANTAI PASOK;A12.6707;25;89;87;87;97;83;88;83;89;86;86;3.5;875;87.5;168.3
35; Auria Farantika Yogananti, S.Sn,MTDdesign;CREATIVE WRITING;A14.7302;23;88;86;84;90;83;85;79;88;84;85;852;85.2;3.7;TEKNIK PRESENTASI;A14.7301;17;61;62;60;65;59;62;57;61;57;58;3.54;602;60.2;145.4
36; Ayu Pertiwi, S.Kom, MT;REKAYASA PERANGKAT LUNAK LANJUT;A11.4506;22;78;76;76;82;74;72;70;75;75;75;753;75.3;3.42;REKAYASA PERANGKAT LUNAK LANJUT;A11.4501;25;82;81;80;87;84;83;75;77;81;83;3.25;813;81.3;156.6
37; BAMBANG TEGUH UTOMO, SE, MM;;;;;;;;;;;;;;0;0;;;;;;;;;;;;;;;;0;0;0
38; BERNARDUS ANDANG PRASETYA ADIWIBAWA, ST, M.Si;GAMBAR TEKNIK;A14.7102;25;98;85;80;89;84;96;72;84;90;80;858;85.8;3.43;KOLOKIUM;A14.7701;16;54;55;56;58;56;57;54;59;57;57;3.52;563;56.3;142.1
39; Budi Widjajanto, M.Kom;SISTEM INFORMASI;A12.6101;10;30;31;31;36;31;32;30;32;31;30;314;31.4;3.14;SISTEM INFORMASI;A12.6106;17;56;58;56;58;56;57;50;55;54;54;3.26;554;55.4;86.8
40; Cahaya Jatmoko, M.Kom;PENGANTAR TEKNOLOGI INFORMASI;A11.4112;24;82;89;82;87;83;80;76;80;84;86;829;82.9;3.45;PENGANTAR TEKNOLOGI INFORMASI;A11.4114;22;80;74;66;76;76;77;63;64;73;71;3.27;720;72;154.9
41; Candra Irawan, M.Kom;PERENCANAAN DAN PENGEMBANGAN SI;A12.6703;25;84;82;87;88;85;81;82;85;86;87;847;84.7;3.39;ALGORITMA DAN PEMROGRAMAN 2;A12.6301U;22;73;72;72;73;73;67;71;73;71;68;3.24;713;71.3;156
42; CANDRA YUDHA SATRIYA, SE, M.I.Kom;;;;;;;;;;;;;;0;0;;;;;;;;;;;;;;;;0;0;0
43; Catur Supriyanto, S. Kom, M.CS;MATRIKS & RUANG VEKTOR;A11.4306;25;83;81;77;88;80;76;71;80;78;75;789;78.9;3.16;PENGOLAHAN CITRA DIGITAL;A11.4501i;19;54;55;58;59;62;52;54;56;57;56;2.96;563;56.3;135.2
44; Chaerul umam, M.Kom;NETWORK MANAGEMENT;A11.4705;23;75;79;75;82;76;74;70;76;74;77;758;75.8;3.3;ORGANISASI DAN ARSITEKTUR KOMPUTER;A11.4309;25;87;92;93;98;84;84;91;89;82;93;3.57;893;89.3;165.1
45; Charisma Tubagus Setyobudhi, MT;PEMROGRAMAN MOBILE;A11.4509;20;77;75;75;76;77;79;74;75;74;75;757;75.7;3.79;GAME PROGRAMMING;A11.4707;25;78;79;71;86;76;87;70;74;72;73;3.06;766;76.6;152.3
46; Choirul Anam, M.Ag;PENDIDIKAN AGAMA;A11.4113;25;84;86;85;94;87;83;72;68;82;84;825;82.5;3.3;PENDIDIKAN AGAMA;A11.4107;18;62;62;62;69;58;58;58;58;58;60;3.36;605;60.5;143
47; Christy Atika Sari, M.Kom;SISTEM INFORMASI;A11.4508;25;98;92;94;97;93;84;83;90;87;98;916;91.6;3.66;PENGOLAHAN CITRA DIGITAL;A11.4501;9;34;34;33;35;33;35;32;35;32;34;3.74;337;33.7;125.3
48; Cinantya Paramita, S.Kom, M.Eng;MATRIKS & RUANG VEKTOR;A11.4315;20;69;71;73;76;68;66;71;71;74;71;710;71;3.55;MATRIKS & RUANG VEKTOR;A11.4301;24;82;84;75;89;84;81;70;85;78;86;3.39;814;81.4;152.4
49; Danang Wahyu Utomo, M.Kom;ORGANISASI DAN ARSITEKTUR KOMPUTER;A11.4308;24;89;84;85;94;81;77;76;82;82;83;833;83.3;3.47;STRUKTUR DATA;A11.4303;25;81;85;86;93;83;76;77;85;79;81;3.3;826;82.6;165.9
50; Daniar Wikan Setyanto, M.Sn;PSIKOLOGI PERSEPSI;A14.7302;25;87;92;92;97;85;82;88;92;84;86;885;88.5;3.54;PSIKOLOGI PERSEPSI;A14.7303;25;83;82;85;92;82;80;78;83;83;79;3.31;827;82.7;171.2
51; Daurat Sinaga, M.Kom;PEMROGRAMAN BERBASIS WEB;A11.4305;25;80;80;80;83;81;76;73;83;78;80;794;79.4;3.18;PEMROGRAMAN BERBASIS WEB;A11.4310;22;75;77;73;80;76;78;67;72;76;76;3.41;750;75;154.4
52; De Rosal Ignatius Moses Setiadi,  M.Kom;DASAR PEMROGRAMAN;A11.4107;24;91;91;87;94;86;85;81;83;85;84;867;86.7;3.61;STRUKTUR DATA;A11.4302;25;97;95;94;98;92;91;94;97;96;91;3.78;945;94.5;181.2
53; DEDDY AWARD WIDYA LAKSANA, M.Pd;PENGANTAR DESAIN GRAFIS;A22.3102;24;85;83;84;93;81;79;75;81;80;79;820;82;3.42;PENGANTAR DESAIN GRAFIS;A22.3101;22;88;81;80;84;77;84;73;79;83;76;3.66;805;80.5;162.5
54; Defri Kurniawan, M.Kom;STRUKTUR DATA;A11.4308;25;91;89;86;93;92;75;83;82;85;89;865;86.5;3.46;PENGANTAR TEKNOLOGI INFORMASI;A11.4116;23;82;81;80;89;84;73;70;74;78;79;3.43;790;79;165.5
55; Desi Purwanti Kusumaningrum, M.Kom;DASAR PEMROGRAMAN;A11.4104;24;89;87;86;90;83;76;79;85;82;80;837;83.7;3.49;DASAR PEMROGRAMAN;A11.4108;25;88;86;89;94;91;80;79;91;87;87;3.49;872;87.2;170.9
56; DEVI PURNAMASARI, M.I.Kom;PENDIDIKAN AGAMA;;;;;;;;;;;;;0;0;;;;;;;;;;;;;;;;0;0;0
57; DIAN ARIF RACHMAN, M.Si;;;;;;;;;;;;;;0;0;;;;;;;;;;;;;;;;0;0;0
58; DIDIK SRI PURWADI, M.Kom;;;;;;;;;;;;;;0;0;;;;;;;;;;;;;;;;0;0;0
59; Diding Darmudi, Lc., M.Si.;;A11.4111;18;67;66;67;66;67;67;66;66;66;69;667;66.7;3.71;PENDIDIKAN AGAMA;A11.4116;25;84;83;85;90;89;82;90;88;88;84;3.45;863;86.3;153
60; DIDIT AGUS TRIYONO, M.I.Kom;;;;;;;;;;;;;;0;0;;;;;;;;;;;;;;;;0;0;0
61; Dimas Irawan Ihya' Ulumuddin, S.Sn, M.Kom;AUDIO VISUAL;A14.7506;23;83;82;84;85;81;76;80;77;79;77;804;80.4;3.5;AUDIO VISUAL;A14.7502;16;53;57;52;59;53;55;54;51;54;54;3.59;542;54.2;134.6
62; DINI HIDAYANTI HERPAMUDJI, M.I.Kom;;;;;;;;;;;;;;0;0;;;;;;;;;;;;;;;;0;0;0
63; Dr. Drs.ABDUL SYUKUR, MM;;;;;;;;;;;;;;0;0;;;;;;;;;;;;;;;;0;0;0
64; Dra.NADIA ARDIWINATA, MM;;;;;;;;;;;;;;0;0;;;;;;;;;;;;;;;;0;0;0
65; Dwi Puji Prabowo, S.Sn,M.Kom;PENGANTAR TEKNOLOGI INFORMASI;A14.7103;19;65;63;67;71;63;61;64;62;63;62;641;64.1;3.37;TEORI PERIKLANAN;A14.7502;24;79;82;80;86;79;80;74;77;80;81;3.33;798;79.8;143.9
66; DWIYONO ARIFIYANTO, S. Kom;;;;;;;;;;;;;;0;0;;;;;;;;;;;;;;;;0;0;0
67; Dzuha Hening Yanuarsari, M.Ds;KRITIK DESAIN;A14.7507;25;87;89;87;95;90;82;75;86;88;81;860;86;3.44;ETIKA PROFESI;A14.7702;21;70;72;73;80;68;60;66;65;64;69;3.37;687;68.7;154.7
68; Edi Faisal, S.Kom, M.Kom;DASAR KEWIRAUSAHAAN;A22.3302;20;70;69;70;76;63;64;67;70;69;67;685;68.5;3.43;DASAR KEWIRAUSAHAAN;A22.3301;17;55;57;59;63;56;56;58;58;56;58;3.39;576;57.6;126.1
69; EDI SUGIARTO, S.Kom, M.Kom;BASIS DATA LANJUT;A22.3301;21;64;61;60;64;65;63;49;66;65;58;615;61.5;2.93;PEMROGRAMAN GIS;A22.3301;24;77;81;72;78;81;87;70;79;82;81;3.28;788;78.8;140.3
70; Edy Mulyanto, SSi, M.Kom;PENGOLAHAN CITRA DIGITAL;A11.4507;24;88;89;88;94;87;84;87;89;89;88;883;88.3;3.68;PENGOLAHAN CITRA DIGITAL;A11.4505;13;49;50;52;49;48;47;47;49;45;44;3.69;480;48;136.3
71; Egia Rosi Subhiyakto, M.Kom;SISTEM INFORMASI;A11.4510;23;82;84;83;85;81;80;75;74;79;79;802;80.2;3.49;REKAYASA PERANGKAT LUNAK LANJUT;A11.4507;23;85;84;82;87;79;83;76;80;82;83;3.57;821;82.1;162.3
72; Eko Hari Rachmawanto, M.Kom;STRUKTUR DATA;A11.4301;24;85;90;87;94;87;85;85;87;87;81;868;86.8;3.62;DASAR PEMROGRAMAN;A11.4116;25;98;99;98;100;95;91;96;98;96;95;3.86;966;96.6;183.4
73; Elkaf Rahmawan P., M.Kom;ORGANISASI DAN ARSITEKTUR KOMPUTER;A11.4306;23;74;74;72;81;75;68;69;74;75;71;733;73.3;3.19;JARINGAN KOMPUTER;A11.4517;22;76;75;76;73;76;71;70;76;73;78;3.38;744;74.4;147.7
74; Erika Devi Udayanti, S.Kom, M.CS;SISTEM INFORMASI;A12.6102;12;44;45;42;46;43;37;39;43;40;43;422;42.2;3.52;SISTEM INFORMASI;A12.6103;14;52;52;48;55;51;50;48;50;44;48;3.56;498;49.8;92
75; Erisa Adyati Rahmasari, S.Sn, M.Kom;NIRMANA;A14.7103;25;88;89;90;96;88;81;86;86;90;88;882;88.2;3.53;TIPOGRAFI;A14.7104;24;87;84;85;86;80;87;81;86;78;83;3.49;837;83.7;171.9
76; Erlin Dolphina, SH, MM;ETIKA PROFESI;A11.4504;4;15;15;16;16;14;13;14;15;13;16;147;14.7;3.68;ETIKA PROFESI;A11.4508;25;88;84;77;84;78;54;71;83;74;78;3.08;771;77.1;91.8
77; Erna Zuni Astuti, M.Kom;PROBABILITAS & STATISTIK;A11.4303;24;93;94;91;93;91;82;84;88;85;87;888;88.8;3.7;KALKULUS 1;A11.4113;18;66;68;69;71;63;61;65;64;65;64;3.64;656;65.6;154.4
78; Erwin Yudi Hidayat, S.Kom, M.CS;MATEMATIKA DISKRIT;A11.4319;25;93;94;95;97;93;84;84;91;90;90;911;91.1;3.64;MATEMATIKA DISKRIT;A11.4310;23;84;83;79;86;82;78;80;80;81;79;3.53;812;81.2;172.3
79; Etika Kartikadarma, M.Kom;SOFTWARE QUALITY AND TESTING;A11.4701;25;91;89;87;89;82;82;96;94;86;78;874;87.4;3.5;REKAYASA PERANGKAT LUNAK LANJUT;A11.4502;25;94;95;93;96;92;93;89;94;90;90;3.7;926;92.6;180
80; Fahri Firdausillah, S.Kom, M.CS;PEMROGRAMAN MOBILE;A11.4515;23;80;77;73;86;79;78;70;73;78;77;771;77.1;3.35;PEMROGRAMAN MOBILE;A11.4501u;24;79;79;74;88;80;73;72;74;76;81;3.23;776;77.6;154.7
81; Fajrian Nur Adnan, M.CS;PENGANTAR TEKNOLOGI INFORMASI;A12.6106;23;79;77;81;86;76;71;77;79;77;79;782;78.2;3.4;MANAJEMEN SAINS;A12.6505;19;66;68;68;70;66;67;68;67;66;66;3.54;672;67.2;145.4
82; Farah Zakiyah Rahmanti, M.T.;PEMROGRAMAN MOBILE;A11.4511;25;89;87;88;92;86;88;87;89;88;90;884;88.4;3.54;PEMROGRAMAN MOBILE;A11.4505;22;76;78;69;81;73;73;67;73;70;74;3.34;734;73.4;161.8
83; Feri Agustina, M.Kom;STRUKTUR DATA;A11.4307;12;37;39;40;43;40;39;39;39;36;38;390;39;3.25;STRATEGI ALGORITMA;A11.4503;24;81;82;77;77;81;87;69;69;77;76;3.23;776;77.6;116.6
84; Florentina Esti Nilawati, SH, MM;PENGANTAR MANAJEMEN;A12.6102;8;32;32;32;31;32;30;30;31;30;32;312;31.2;3.9;PENGANTAR MANAJEMEN;A12.6105;17;59;59;55;63;56;57;51;59;53;57;3.35;569;56.9;88.1
85; GENTA MAGHVIRA, M.I.Kom;;;;;;;;;;;;;;0;0;;;;;;;;;;;;;;;;0;0;0
86; Godham Eko Saputro, S.Sn., M.DS;VISUAL STORYTELLING;A14.7505;25;92;92;86;94;86;84;86;88;84;87;879;87.9;3.52;VISUAL STORYTELLING;A14.7501;25;86;88;88;97;88;89;79;86;84;85;3.48;870;87;174.9
87; Gustina Alfa Trisnapradika, M.Kom;FISIKA 1;A11.4112;22;74;80;78;85;77;81;79;76;76;78;784;78.4;3.56;FISIKA 1;A11.4108;25;96;98;96;100;89;95;94;88;96;88;3.76;940;94;172.4
88; Hanny Haryanto, S.Kom, M.T;KOMPUTER GRAFIK;A11.4506;23;87;87;88;88;85;90;85;83;89;86;868;86.8;3.77;KOMPUTER GRAFIK;A11.4517;18;66;69;68;71;62;70;66;66;66;65;3.72;669;66.9;153.7
89; Henry Bastian, M.Kom;PENGANTAR TEKNOLOGI INFORMASI;A14.7102;25;78;80;76;90;84;78;71;76;81;80;794;79.4;3.18;PENGANTAR TEKNOLOGI INFORMASI;A14.7107;23;77;84;78;88;71;71;74;84;74;73;3.37;774;77.4;156.8
90; HENI INDRAYANI, M.I.Kom;;;;;;;;;;;;;;0;0;;;;;;;;;;;;;;;;0;0;0
91; Henry Bastian, M.Kom;;;;;;;;;;;;;;0;0;;;;;;;;;;;;;;;;0;0;0
92; Her Adhi Pamungkas, S.Si.;KALKULUS 1;A11.4111;24;84;85;79;87;84;82;68;73;83;80;805;80.5;3.35;KALKULUS 1;A11.4108;25;82;81;82;81;80;79;76;76;78;74;3.16;789;78.9;159.4
93; Heribertus Himawan, M.Kom;SISTEM BASIS DATA;A11.4507;24;83;84;80;90;75;77;81;82;80;81;813;81.3;3.39;SISTEM INFORMASI;A11.4504;23;72;68;70;72;73;68;67;74;67;69;3.04;700;70;151.3
94; Heru Agus Santoso, Ph.D;INFORMATION RETRIEVAL;A11.4705;15;56;56;57;59;57;57;55;56;57;59;569;56.9;3.79;INFORMATION RETRIEVAL;A11.4706;23;81;82;81;86;83;76;73;81;81;80;3.5;804;80.4;137.3
95; Heru Lestiawan, M.Kom;MANAJEMEN PROYEK;A11.4501;25;90;89;82;90;90;82;77;84;89;81;854;85.4;3.42;MANAJEMEN PROYEK;A11.4505;23;70;73;70;73;68;62;67;72;72;72;3.04;699;69.9;155.3
96; Heru Pramono Hadi, SE, M.Kom;DASAR AKUNTANSI;A12.6105;24;85;84;81;95;82;88;72;81;85;84;837;83.7;3.49;PENGANTAR MANAJEMEN;A12.6104;24;86;83;81;93;85;83;78;80;84;81;3.48;834;83.4;167.1
97; HERY PAMUNGKAS, S.S.M.I.KOM;;;;;;;;;;;;;;0;0;;;;;;;;;;;;;;;;0;0;0
98; Ibnu Utomo W.M., M.Kom;PEMROGRAMAN BERORIENTASI OBJEK I;A22.3302;22;79;82;81;82;73;77;67;69;71;73;754;75.4;3.43;PEMROGRAMAN BERORIENTASI OBJEK I;A22.3301;19;67;69;68;68;63;65;59;59;61;62;3.24;641;64.1;139.5
99; Ifan Rizqa, M.Kom;DASAR PEMROGRAMAN;A11.4112;22;79;74;68;72;73;74;60;70;73;69;712;71.2;3.24;DASAR PEMROGRAMAN;A11.4113;18;65;64;63;67;63;61;62;63;67;66;3.56;641;64.1;135.3
100; IKY PUTRI ARISTHYA, M.I.Kom;;;;;;;;;;;;;;0;0;;;;;;;;;;;;;;;;0;0;0
101; Indra Gamayanto, ST, MITM;MANAJEMEN RANTAI PASOK;A12.6702;22;78;84;83;85;76;83;81;83;81;81;815;81.5;3.7;PENGANTAR MANAJEMEN;A12.6106;21;74;76;76;81;71;77;75;75;76;74;3.6;755;75.5;157
102;IWAN PRASETYO;;;;;;;;;;;;;;0;0;;;;;;;;;;;;;;;;0;0;0
103; Junta Zeniarja, M.Kom;DASAR PEMROGRAMAN;A11.4115;25;78;81;82;90;79;79;71;81;78;80;799;79.9;3.2;INFORMATION RETRIEVAL;A11.4704;25;88;87;85;93;87;74;78;81;84;85;3.37;842;84.2;164.1
104; Karis Widyatmoko, S.Si, M.Kom;DASAR PEMROGRAMAN;A22.3101;24;78;80;80;81;78;64;76;84;79;77;777;77.7;3.24;ALGORITMA & STRUKTUR DATA;A22.3101;23;70;73;76;82;73;72;71;79;74;74;3.23;744;74.4;152.1
105; Khamadi, M. Ds;VISUAL STORYTELLING;A14.7504;25;90;89;95;99;92;87;88;94;90;91;915;91.5;3.66;MANAJEMEN DESAIN;A14.7703;20;66;65;67;74;67;67;66;68;65;66;3.36;671;67.1;158.6
106; L.Budi Handoko, M.Kom;NETWORK MANAGEMENT;A11.4708;24;79;80;79;83;79;73;73;76;78;80;780;78;3.25;JARINGAN KOMPUTER;A11.4513;24;71;78;76;84;72;55;65;72;70;72;2.98;715;71.5;149.5
107; LAILA ISNAINA FATIMA, ST., M.Ec.Dev;;;;;;;;;;;;;;0;0;;;;;;;;;;;;;;;;0;0;0
108; Lalang Erawan, M.Kom;PEMROGRAMAN WEB;A12.6304U;25;90;89;95;99;92;87;88;94;90;91;915;91.5;3.66;PEMROGRAMAN WEB;A12.6305;18;51;53;51;59;56;54;49;50;59;50;2.96;532;53.2;144.7
109; LISA MARDIANA, S.Sos, M.I.Kom;;;;;;;;;;;;;;0;0;;;;;;;;;;;;;;;;0;0;0
110; Liya Umaroh, M.Hum;BAHASA INGGRIS;A14.7104;25;87;91;89;96;81;85;77;83;82;85;856;85.6;3.42;BAHASA INGGRIS;A14.7103;25;83;85;78;93;78;75;67;75;81;81;3.09;796;79.6;165.2
111; Maulana Muhammad Fahmi, S. Kom.;FOTOGRAFI 1;A14.7305;25;83;89;88;123;80;58;81;88;76;80;846;84.6;3.38;FOTOGRAFI 1;A14.7308;24;88;90;92;92;85;75;91;95;84;90;3.68;882;88.2;172.8
112; Mohamad Sidiq, S.Si, M.Kom;MANAJEMEN PROYEK;A11.4506;20;63;65;61;70;65;70;52;63;64;62;635;63.5;3.18;MATRIKS & RUANG VEKTOR;A11.4310;23;60;61;58;66;62;50;45;55;57;56;2.48;570;57;120.5
113; MUH. PURNOMO SIDIQ, M.Pd;VIDEO EDITING;A24.8301;25;82;89;87;87;85;86;85;88;88;87;864;86.4;3.46;PRODUKSI PROGRAM TV I;A24.8301;18;64;69;69;69;64;66;67;69;65;69;3.73;671;67.1;153.5
114; Muhamad Akrom, M.Si;FISIKA 1;A11.4111;25;85;95;96;99;87;76;80;88;85;84;875;87.5;3.5;FISIKA 1;A11.4110;23;82;76;76;88;79;83;68;70;78;75;3.37;775;77.5;165
115; MUHAMAD SYARIFUDIN,  S.Ag., M.Pd.I;PENDIDIKAN AGAMA;A11.4108;25;90;85;88;97;88;89;82;78;86;83;866;86.6;3.46;PENDIDIKAN AGAMA;A11.4115;25;89;89;91;97;86;84;84;87;83;80;3.48;870;87;173.6
116; Muhammad Kholidul Adib, M.S.I;PENDIDIKAN AGAMA;A11.4102;24;81;82;78;89;79;62;73;74;72;81;771;77.1;3.21;PENDIDIKAN AGAMA;A11.4105;25;79;89;87;96;92;94;76;79;87;78;3.43;857;85.7;162.8
117; MUHAMMAD TAUFIK, M.Sn.;MENGGAMBAR 2;A14.7303;23;68;70;65;76;70;73;67;71;70;73;703;70.3;3.06;METODE PRODUKSI GRAFIKA 2;A14.7502;24;77;76;77;80;70;61;68;71;66;72;2.99;718;71.8;142.1
118; MUHTADI, S.Si, M.Kom;MATEMATIKA DISKRIT;A12.6103;25;97;99;99;99;97;92;96;100;98;98;975;97.5;3.9;MATEMATIKA DISKRIT;A12.6106;25;97;95;96;99;94;86;94;97;89;93;3.76;940;94;191.5
119; Muslih, M.Kom;PEMROGRAMAN WEB I;A22.3102;25;83;86;85;92;78;76;77;83;82;80;822;82.2;3.29;PEMROGRAMAN WEB I;A22.3101;22;72;76;78;87;75;73;73;82;74;73;3.47;763;76.3;158.5
120; MUKAROMAH, M.I.Kom;;;;;;;;;;;;;;0;0;;;;;;;;;;;;;;;;0;0;0
121; Muslih, M.Kom;;;;;;;;;;;;;;0;0;;;;;;;;;;;;;;;;0;0;0
122; MUTIA RAHMI PRATIWI, M.I.Kom;;;;;;;;;;;;;;0;0;;;;;;;;;;;;;;;;0;0;0
123; MY. Teguh Sulistyono, M.Kom;SISTEM OPERASI;A12.6301U;21;77;76;77;80;76;76;77;76;75;76;766;76.6;3.65;BISNIS CERDAS;A12.6702;17;63;63;63;66;59;59;60;64;61;59;3.63;617;61.7;138.3
124; NAIZA ROSALIA, M.Si;;;;;;;;;;;;;;0;0;;;;;;;;;;;;;;;;0;0;0
125; Nina Setyaningsih, S.S., M.Hum.;BAHASA INGGRIS;A11.4111;18;58;60;55;67;60;55;51;59;58;60;583;58.3;3.24;BAHASA INGGRIS;A11.4119;15;53;52;50;60;52;53;44;51;51;51;3.45;517;51.7;110
126; NINOK, S.Sos;;;;;;;;;;;;;;0;0;;;;;;;;;;;;;;;;0;0;0
127; Nisa'ul Hafidhoh, M.T.;STRUKTUR DATA;A11.4317;17;58;60;57;64;55;56;57;56;60;56;579;57.9;3.41;DASAR PEMROGRAMAN;A11.4110;18;61;66;65;71;64;59;64;67;61;64;3.57;642;64.2;122.1
128; Noor Ageng Setiyanto, M.Kom;PEMROGRAMAN BERBASIS WEB;A11.4307;24;86;83;79;89;82;82;73;79;78;78;809;80.9;3.37;PEMROGRAMAN BERBASIS WEB;A11.4318;25;90;93;91;93;89;89;84;91;87;88;3.58;895;89.5;170.4
129; Noor Hasyim,  M.Ds.;NEW MEDIA;A14.7701;19;65;66;67;68;65;64;67;63;63;65;653;65.3;3.44;NIRMANA;A14.7102;23;74;76;73;79;77;61;67;70;75;70;3.14;722;72.2;137.5
130; Nova Rijati, SSi, M.Kom;MATEMATIKA DISKRIT;A11.4320;11;38;43;39;44;40;32;38;38;36;38;386;38.6;3.51;MATEMATIKA DISKRIT;A11.4311;25;93;93;91;96;93;81;89;90;89;89;3.62;904;90.4;129
131; NOVI HENDRIYANTO, M.Kom.;PENGANTAR SISTEM OPERASI DAN JARINGAN KOMPUTER;A22.3102;24;86;83;79;89;82;82;73;79;78;78;809;80.9;3.37;PENGANTAR SISTEM OPERASI DAN JARINGAN KOMPUTER;A22.3101;19;61;66;64;66;61;63;64;64;63;66;3.36;638;63.8;144.7
132; NOVITA KURNIA NINGRUM, M. Kom;MANAJEMEN PROYEK;A11.4502;25;97;95;96;99;94;86;94;97;89;93;940;94;3.76;START UP BUSINESS;A11.4709;18;64;62;65;67;63;59;60;66;62;62;3.5;630;63;157
133; NUR CAHYO HENDRO W, ST.M.Kom;FISIKA 1;A11.4107;25;94;93;93;96;93;90;85;86;88;88;906;90.6;3.62;FISIKA 1;A11.4105;25;96;94;93;97;94;81;90;94;87;95;3.68;921;92.1;182.7
134; NUR ROKHMAN, S.Sn, M.Kom;PEMROGRAMAN MOBILE 1;A22.3302;16;56;56;57;60;55;52;56;57;56;54;559;55.9;3.49;PEMROGRAMAN MOBILE 1;A22.3301;21;84;67;67;70;67;65;70;71;68;71;3.33;700;70;125.9
135; NURYONO, Drs.;;;;;;;;;;;;;;0;0;;;;;;;;;;;;;;;;0;0;0
136; OKI SETIONO, M.Kom;;;;;;;;;;;;;;0;0;;;;;;;;;;;;;;;;0;0;0
137; OKKI MARIA, M.Si;;;;;;;;;;;;;;0;0;;;;;;;;;;;;;;;;0;0;0
138; PETRUS GOGOR BANGSA, S. Sn, M.Sn;DESAIN KOMUNIKASI VISUAL 1;A14.7301;23;84;81;81;82;80;82;81;83;87;78;819;81.9;3.56;;;;;;;;;;;;;;;0;0;81.9
139; Prajanto Wahyu Adi, M.Kom;PENGOLAHAN CITRA DIGITAL;A11.4503;21;77;75;74;83;76;72;69;75;75;71;747;74.7;3.56;PEMODELAN DAN SIMULASI;A11.4702;17;58;62;60;66;61;59;53;60;61;59;3.52;599;59.9;134.6
140; PURI KUSUMA DWI PUTRI, M.I.Kom;;;;;;;;;;;;;;0;0;;;;;;;;;;;;;;;;0;0;0
141; PURI SULISTIYAWATI, S.Sn, M.Kom;TIPOGRAFI;A14.7106;18;67;67;65;69;66;66;64;64;68;62;658;65.8;3.66;TIPOGRAFI;A14.7102;20;80;73;70;77;73;65;64;73;74;75;3.62;724;72.4;138.2
142; Purwanto, S.Si, M.Kom, Ph.D;METODE NUMERIK;A11.4703;24;86;83;79;89;82;82;73;79;78;78;809;80.9;3.37;METODE NUMERIK;A11.4705;21;66;66;64;77;64;61;60;61;62;65;3.08;646;64.6;145.5
143; Raden Arief Nugroho, SS., M.Hum.;BAHASA INGGRIS;A11.4105;23;81;82;80;82;79;87;79;84;73;79;806;80.6;3.5;BAHASA INGGRIS;A11.4116;18;61;63;63;71;63;71;59;66;64;64;3.58;645;64.5;145.1
144; Rahmanti Asmarani, SS., M.Hum.;BAHASA INGGRIS;A12.6107;17;64;63;63;66;64;60;62;62;63;61;628;62.8;3.69;BAHASA INGGRIS;A12.6101;23;87;86;84;90;83;84;82;86;83;84;;849;84.9;147.7
145; Rama Aria Megantara, M.Kom;NETWORK MANAGEMENT;A11.4709;16;61;62;62;64;61;61;61;62;61;61;616;61.6;3.85;ORGANISASI DAN ARSITEKTUR KOMPUTER;A11.4302;25;87;87;87;97;89;82;96;95;91;96;3.63;907;90.7;152.3
146; Ramadhan Rakhmat Sani,  M.Kom;PROTEKSI ASET INFORMASI;A12.6702;25;77;77;68;81;78;73;62;65;75;80;736;73.6;2.94;JARINGAN KOMPUTER;A12.6306;16;51;52;47;55;53;54;44;48;50;51;3.16;505;50.5;124.1
147; Ricardus Anggi Pramunendar, MCS;PEMODELAN DAN SIMULASI;A11.4709;25;76;83;86;91;73;87;81;88;82;80;827;82.7;3.31;PROBABILITAS & STATISTIK;A11.4308;24;73;76;72;85;74;72;65;75;75;73;3.08;740;74;156.7
148; RINDRA YUSIANTO, S.Kom;;;;;;;;;;;;;;0;0;;;;;;;;;;;;;;;;0;0;0
149; RISMIYATI, B.Eng;;;;;;;;;;;;;;0;0;;;;;;;;;;;;;;;;0;0;0
150; Ristia Kadiasti, M.Sn;STORYBOARD;A17.B301;18;67;67;65;69;66;66;64;64;68;62;658;65.8;3.66;NIRMANA;A17.B101;19;66;68;59;70;65;59;64;65;65;65;3.4;646;64.6;130.4
151; ROBERTUS HERI SU, S.Si,M.Si;MATRIKS & RUANG VEKTOR;A11.4303;23;87;86;84;90;83;84;82;86;83;84;849;84.9;3.5;MATEMATIKA DISKRIT;A11.4305;23;81;82;80;82;79;87;79;84;73;79;;806;80.6;165.5
152; Sasono Wibowo, SE, M.Kom;PENGANTAR MANAJEMEN;A12.6107;16;51;52;52;60;55;50;52;57;52;53;534;53.4;3.34;DASAR AKUNTANSI;A12.6103;22;77;82;74;83;76;80;74;79;82;80;3.58;787;78.7;132.1
153; Septian Enggar Sukmana, MT.;PEMROGRAMAN MOBILE;A11.4503;20;66;64;64;71;66;67;57;64;66;64;649;64.9;3.25;MATEMATIKA DISKRIT;A11.4309;23;69;69;62;77;71;66;52;63;73;66;2.9;668;66.8;131.7
154; Setia Astuti, S.Si, M.Kom;PROBABILITAS & STATISTIK;A11.4305;25;87;87;87;97;89;82;96;95;91;96;907;90.7;3.63;KALKULUS 1;A11.4106;25;88;88;93;95;91;74;90;92;81;84;3.5;876;87.6;178.3
155; Setyo Budi, M.Kom;PEMROGRAMAN WEB;A12.6303;17;56;57;56;61;58;55;53;53;58;55;562;56.2;3.31;SISTEM OPERASI;A12.6305;18;68;67;67;71;66;68;65;62;69;67;3.72;670;67;123.2
156; Setyo Prasiyanto Cahyono, SS., M.Pd.;BAHASA INGGRIS;A11.4114;25;87;90;86;94;84;81;83;88;86;87;866;86.6;3.46;BAHASA INGGRIS;A11.4112;24;83;82;84;89;80;81;83;81;82;81;3.44;826;82.6;169.2
157; SISWO PRANOTO, S.Sn;;;;;;;;;;;;;;0;0;;;;;;;;;;;;;;;;0;0;0
158; Slamet Sudaryanto N., ST, M.Kom;REKAYASA PERANGKAT LUNAK LANJUT;A11.4505;25;81;85;73;82;76;67;79;88;83;78;792;79.2;3.17;REKAYASA PERANGKAT LUNAK LANJUT;A11.4504;25;76;85;76;80;80;73;81;89;82;74;3.18;796;79.6;158.8
159; SOETOMO, S.Sos., M.I.Kom;;;;;;;;;;;;;;0;0;;;;;;;;;;;;;;;;0;0;0
160; Sudaryanto, M.Kom;SISTEM BASIS DATA;A12.6505;16;50;48;47;54;50;48;48;50;50;43;488;48.8;3.05;ALGORITMA DAN PEMROGRAMAN 2;A12.6303;16;55;56;53;56;57;52;48;48;53;51;3.31;529;52.9;101.7
161; SUGIYANTO, M.Kom;;;;;;;;;;;;;;0;0;;;;;;;;;;;;;;;;0;0;0
162; Suhariyanto, M.Kom;PENGANTAR TEKNOLOGI INFORMASI;A24.8101;19;67;70;67;72;61;66;64;67;66;64;664;66.4;3.49;TECHNOPRENEURSHIP;A24.8101;25;83;87;89;82;84;88;86;84;90;92;3.46;865;86.5;152.9
163; Suharnawi, M.Kom;PENGANTAR TEKNOLOGI INFORMASI;A12.6103;25;90;86;83;86;87;91;81;85;89;86;864;86.4;3.46;SISTEM OPERASI;A12.6302;19;66;66;65;74;66;71;60;68;69;66;3.53;671;67.1;153.5
164; Suprayogi, M.Kom;DASAR PEMROGRAMAN;A11.4105;25;77;76;74;86;75;85;65;71;77;78;764;76.4;3.06;PENGANTAR TEKNOLOGI INFORMASI;A11.4113;23;79;78;70;84;79;62;66;64;77;75;3.19;734;73.4;149.8
165; SWITA AMALIA HAPSARI, M.I.Kom;;;;;;;;;;;;;;0;0;;;;;;;;;;;;;;;;0;0;0
166; T. Sutojo, S.Si, M.Kom;FISIKA 1;A11.4102;2;6;6;7;8;7;7;6;8;5;7;67;6.7;3.35;MATRIKS & RUANG VEKTOR;A11.4311;19;53;57;49;55;48;50;39;47;53;49;2.63;500;50;56.7
167; TAUFIQ ANNAS, S.Sn;CREATIVE ENTREPRENEURSHIP;A14.7501;13;46;43;44;46;43;47;43;44;44;43;443;44.3;3.41;ETIKA PROFESI;A14.7704;10;35;35;36;36;36;34;36;35;35;35;3.53;353;35.3;79.6
168; Teguh Hartono Patriantoro, M.A.;SEJARAH KEBUDAYAAN INDONESIA;A16.A101;17;58;62;61;66;59;62;56;60;61;60;605;60.5;3.56;FILM SOUND;A16.A301;25;84;86;85;93;85;85;83;85;83;85;3.42;854;85.4;145.9
169; Thesa Resi Sila Utami, M.Sn.;CREATIVE AND INNOVATIVE THINKING;A16.A101;19;60;60;60;62;60;58;61;60;56;59;596;59.6;3.14;FILM DOKUMENTER JURNALISTIK;A16.A301;25;80;83;84;85;81;78;80;79;77;78;3.22;805;80.5;140.1
170; Titien Suhartini Sukamto, S.Kom, M.Eng.;INTERAKSI MANUSIA DAN KOMPUTER;A12.6501;25;89;90;89;91;92;88;90;90;93;91;903;90.3;3.61;PENGANTAR TEKNOLOGI INFORMASI;A12.6103;23;87;85;83;89;83;86;79;87;84;77;3.65;840;84;174.3
171; Toto Haryadi, M.Ds;PENGANTAR DESAIN KOMUNIKASI VISUAL;A14.7108;23;80;86;80;91;73;84;70;77;77;77;795;79.5;3.46;KRITIK DESAIN;A14.7506;21;77;77;78;82;72;76;69;75;73;69;3.56;748;74.8;154.3
172; Tunggul Banjaransari, M.Sn;MEMBACA FILM AMERIKA UTARA;A16.A301;18;62;62;65;65;62;62;64;65;62;67;636;63.6;3.53;PSIKOLOGI FILM;A16.A301;22;80;84;85;85;82;74;83;83;80;77;3.7;813;81.3;144.9
173; Umi Rosyidah, S.Kom, M.T;PENGANTAR TEKNOLOGI INFORMASI;A11.4102;24;83;81;83;90;81;84;70;81;85;78;816;81.6;3.4;PENGANTAR TEKNOLOGI INFORMASI;A11.4101;25;88;85;83;86;86;77;78;81;81;84;3.32;829;82.9;164.5
174; Usman Sudibyo, SSi.,M.KOM;KALKULUS 1;A11.4105;25;90;90;85;91;86;92;79;86;86;84;869;86.9;3.48;KALKULUS 1;A11.4116;25;98;95;92;99;96;88;89;86;92;91;3.7;926;92.6;179.5
175; Valentina Widya S, SS., M.Hum.;BAHASA INGGRIS;A11.4106;23;76;78;78;87;82;87;74;79;83;73;797;79.7;3.47;BAHASA INGGRIS;A11.4109;25;88;89;86;94;81;83;83;89;84;81;3.43;858;85.8;165.5
176; Wellia Shinta Sari, M.Kom;PERENCANAAN DAN PENGEMBANGAN SI;A12.6702;23;79;83;79;82;79;84;71;73;81;82;793;79.3;3.45;ANALISA DAN PERANCANGAN SISTEM INFORMASI 2;A12.6503;21;76;76;75;79;73;69;71;71;72;73;3.5;735;73.5;152.8
177; WIBOWO WICAKSONO, ST.,M.Kom;ORGANISASI DAN ARSITEKTUR KOMPUTER;A11.4307;24;82;82;82;88;78;73;77;82;80;85;809;80.9;3.37;STRATEGI ALGORITMA;A11.4506;20;70;63;63;66;69;62;54;66;68;65;3.23;646;64.6;145.5
178; Wijanarto, M.Kom;DASAR PEMROGRAMAN;A11.4114;25;75;74;64;78;85;77;62;75;80;79;749;74.9;3;STRUKTUR DATA;A11.4301u;18;68;68;64;69;65;72;61;67;69;65;3.71;668;66.8;141.7
179; Wise Herowati, M.Kom;FISIKA 1;A11.4115;15;55;55;51;55;50;45;50;52;52;52;517;51.7;3.45;FISIKA 1;A11.4114;14;52;51;51;53;52;49;51;52;49;52;3.66;512;51.2;102.9
180; Yani Parti Astuti, S.Si, M.Kom;KALKULUS 1;A11.4114;25;90;92;92;94;86;82;83;83;87;87;876;87.6;3.5;KALKULUS 1;A11.4103;25;93;90;92;94;90;84;83;87;90;90;3.57;893;89.3;176.9
181; YOMA BAGUS PAMUNGKAS, M.I.Kom;;;;;;;;;;;;;;0;0;;;;;;;;;;;;;;;;0;0;0
182; Yupie Kusumawati, SE, M.Kom;PENGELOLAAN HUBUNGAN PELANGGAN;A12.6505;17;60;59;61;61;61;59;60;60;61;59;601;60.1;3.54;DASAR AKUNTANSI;A12.6106;23;81;78;77;85;78;74;71;79;77;78;3.38;778;77.8;137.9
183; YUSTIONO, SE,MM;;;;;;;;;;;;;;0;0;;;;;;;;;;;;;;;;0;0;0
184; Zaenal Arifin, SE, M.Kom;PENGANTAR MANAJEMEN;A12.6103;25;77;84;84;87;77;78;82;80;81;82;812;81.2;3.25;PENDIDIKAN AGAMA;A12.6104;21;67;67;68;70;72;63;62;66;68;69;3.2;672;67.2;148.4
185; Zahrotul Umami, M.I.Kom;PEMASARAN DAN PERILAKU KONSUMEN;A14.7702;10;36;37;37;39;35;38;33;37;38;34;364;36.4;;;;;;;;;;;;;;;;0;0;36.4
186;Dr M. Arief Soeleman, M.Kom;JARINGAN KOMPUTER;A11.4502u;19;67;65;62;70;67;65;59;62;66;65;648;64.8;3.41;JARINGAN KOMPUTER;A11.4509;20;67;63;63;71;67;67;59;60;64;64;3.23;645;64.5;129.3
187;DR Pulung Nurtantio Andono, S.T, M.Kom;MANAJEMEN PROYEK;A11.4503;25;81;80;77;93;79;92;70;80;86;80;818;81.8;3.27;START UP BUSINESS;A11.4707;13;46;48;50;50;46;45;47;48;46;45;3.62;471;47.1;128.9
188;DR Ruri Suko Basuki, M.Kom;SISTEM OPERASI;A12.6304;20;61;65;58;67;64;55;57;61;62;61;611;61.1;3.06;METODOLOGI PENELITIAN;A12.6702;17;54;55;54;62;55;47;44;52;52;53;3.11;528;52.8;113.9
189;DR Solichul Huda, M.Kom;ORGANISASI DAN ARSITEKTUR KOMPUTER;A11.4312;24;91;89;85;94;88;88;87;89;90;90;891;89.1;3.71;ORGANISASI DAN ARSITEKTUR KOMPUTER;A11.4320;22;80;82;82;85;78;77;77;82;82;80;3.66;805;80.5;169.6
190;Dr.  Ester Tari, ;MENGGAMBAR 2;A14.7304;24;86;87;85;88;88;78;85;83;84;86;850;85;3.54;SKETSA;A14.7102;24;95;87;78;88;81;85;81;78;83;79;3.48;835;83.5;168.5
191;Dr. ARIPIN, M.Kom;SISTEM INFORMASI;A11.4501u;21;76;79;73;80;77;77;66;68;72;76;744;74.4;3.54;;;;;;;;;;;;;;;0;0;74.4
192;DR. Fikri Budiman, M.Kom;;;;;;;;;;;;;;0;0;;;;;;;;;;;;;;;;0;0;0
193;Dr. Guruh Fajar Shidik, S.kom., M.Cs;NETWORK MANAGEMENT;A11.4711;9;33;34;33;33;29;26;29;33;30;33;313;31.3;3.48;NETWORK MANAGEMENT;A11.4701i;12;47;45;45;48;43;41;44;47;46;46;3.77;452;45.2;76.5
194;Dr. Khafiizh Hastuti, M.Kom;START UP BUSINESS;A11.4710;18;63;64;65;62;63;63;60;60;62;63;625;62.5;3.47;SISTEM INFORMASI;A11.4506;23;85;84;85;88;85;87;84;83;84;82;3.68;847;84.7;147.2
195;Dr. MULJONO, S.Si, M.Kom;PROBABILITAS & STATISTIK;A11.4302;25;86;90;86;94;88;82;84;92;89;89;880;88;3.52;PEMODELAN DAN SIMULASI;A11.4703;24;80;81;78;83;77;71;69;79;75;74;3.2;767;76.7;164.7
196;Dr. Pujiono, SSi, M.Kom;MANAJEMEN PROYEK;A12.6701;21;70;70;66;70;66;63;68;71;69;66;679;67.9;3.23;MANAJEMEN SAINS;A12.6506U;24;88;85;87;88;84;87;84;91;86;82;3.59;862;86.2;154.1
197;Dr. R. Heru Tjahjana, S.Si, M.Si;KALKULUS 1;A11.4107;21;80;77;73;80;77;83;64;64;74;71;743;74.3;3.54;KALKULUS 1;A11.4112;18;71;66;62;69;67;68;53;56;67;64;3.57;643;64.3;138.6
198;Dr.YUVENTIUS TYAS CATUR PRAMUDI, SSi, M.Kom;;;;;;;;;;;;;;0;0;;;;;;;;;;;;;;;;0;0;0
199;Dra Yuniarsi Rahayu, M.Kom;;;;;;;;;;;;;;0;0;;;;;;;;;;;;;;;;0;0;0
200;DrKUSNI INGSIH, MM;;;;;;;;;;;;;;0;0;;;;;;;;;;;;;;;;0;0;0
201;Drs ARIEF AGUNG SWASONO, M.Sn;DESAIN KOMUNIKASI VISUAL 3;A14.7502;24;85;82;83;92;84;80;84;86;83;86;845;84.5;3.52;DESAIN KOMUNIKASI VISUAL 3;A14.7501;20;73;72;76;77;75;68;74;74;72;73;3.67;734;73.4;157.9
202;DRS BASKORO SURYO BANINDRO, M.Sn;DESAIN KOMUNIKASI VISUAL 3;A14.7504;25;85;82;85;94;84;87;86;85;85;85;858;85.8;3.43;DESAIN KOMUNIKASI VISUAL 3;A14.7503;12;42;41;41;43;41;38;39;42;38;40;3.38;405;40.5;126.3
203;Drs Margana, M.Sn.;DESAIN KOMUNIKASI VISUAL 1;A14.7303;17;55;56;56;62;57;55;55;57;57;58;568;56.8;3.34;DESAIN KOMUNIKASI VISUAL 1;A14.7304;24;80;79;78;87;81;80;75;75;79;75;3.29;789;78.9;135.7
204;Drs PUJIYANTO, M.Sn;;;;;;;;;;;;;;0;0;;;;;;;;;;;;;;;;0;0;0
205;Drs.  H.M. UMAR HADI, M.Sn;KRITIK DESAIN;A14.7502;7;26;26;25;27;24;22;23;21;23;22;239;23.9;3.41;KRITIK DESAIN;A14.7503;25;83;83;84;92;83;80;79;82;80;82;3.31;828;82.8;106.7
206;Drs., A. Soerjowardhana,  M.Pd.;BAHASA INGGRIS;A11.4115;25;83;84;83;96;79;91;75;77;86;81;835;83.5;;;;;;;;;;;;;;;;0;0;83.5
207;DrsGUNAWAN WITJAKSANA, MSi;;;;;;;;;;;;;;0;0;;;;;;;;;;;;;;;;0;0;0
208;Ir. Siti Hadiati Nugraini, M.Kom, Ph.D.;TEKNIK PRESENTASI;A14.7302;20;75;76;75;78;73;73;72;74;76;73;745;74.5;3.73;AUDIO VISUAL;A14.7504;16;63;63;62;63;61;60;62;60;61;61;3.85;616;61.6;136.1
209;Novichasari Suamanda Ika, M.Kom;;;;;;;;;;;;;;0;0;;;;;;;;;;;;;;;;0;0;0
210;Prof. Dr. Ir WIRANTO HERRY UTOMO, M.Kom;;;;;;;;;;;;;;0;0;;;;;;;;;;;;;;;;0;0;0
211;Prof. Dr. IrEDI NOERSASONGKO, M.Kom;;;;;;;;;;;;;;0;0;;;;;;;;;;;;;;;;0;0;0
212;Prof. Dr. Supriadi Rustad, M.Si;FISIKA 1;A11.4103;24;85;87;84;94;84;77;78;86;84;87;846;84.6;3.53;;;;;;;;;;;;;;;0;0;84.6
